{
  "project_info": {
    "project_number": "991118288040",
    "firebase_url": "https://jasa-tani.firebaseio.com",
    "project_id": "jasa-tani",
    "storage_bucket": "jasa-tani.appspot.com"
  },
  "client": [
    {
      "client_info": {
        "mobilesdk_app_id": "1:991118288040:android:2882200b2fc8a3b6",
        "android_client_info": {
          "package_name": "com.elang.tim.jasatani"
        }
      },
      "oauth_client": [
        {
          "client_id": "991118288040-er40glgnf2h0vkvlj7dtkdlorv7mpnuq.apps.googleusercontent.com",
          "client_type": 1,
          "android_info": {
            "package_name": "com.elang.tim.jasatani",
            "certificate_hash": "69fef38219856d4c33f50ee4b8367e2d17675470"
          }
        },
        {
          "client_id": "991118288040-bmv56femjeuj2lm0os79hoc15sgdeunq.apps.googleusercontent.com",
          "client_type": 3
        }
      ],
      "api_key": [
        {
          "current_key": "AIzaSyACf80YdgaGDa_BTsD6Ucb7AtflrTGS42I"
        }
      ],
      "services": {
        "analytics_service": {
          "status": 1
        },
        "appinvite_service": {
          "status": 2,
          "other_platform_oauth_client": [
            {
              "client_id": "991118288040-bmv56femjeuj2lm0os79hoc15sgdeunq.apps.googleusercontent.com",
              "client_type": 3
            }
          ]
        },
        "ads_service": {
          "status": 2
        }
      }
    }
  ],
  "configuration_version": "1"
}